Panobinostat GP example fits
…
Reformat data frame to be compatible with function

panoFitDf <- panoTppData %>% 
    dplyr::select(gene_name = uniqueID,
                  temperature,
                  rel_value = relAbundance,
                  var = compoundConcentration)

panoFitDf

## # A tibble: 145,960 x 4
##    gene_name temperature rel_value   var
##    <chr>           <dbl>     <dbl> <dbl>
##  1 AACS               37    1.000      1
##  2 AACS               41    0.854      1
##  3 AACS               44    0.621      1
##  4 AACS               47    0.223      1
##  5 AACS               50    0.132      1
##  6 AACS               53    0.0614     1
##  7 AACS               56    0.102      1
##  8 AACS               59    0.0378     1
##  9 AACS               63    0.0567     1
## 10 AACS               67    0.0187     1
## #  with 145,950 more rows
…
